<svg fill="currentColor" xmlns="http://www.w3.org/2000/svg" viewBox="0 0 24 24" width="24px" height="24px">
  <path d="M 16.15625 2 C 14.683594 2.058594 13.421875 3.042969 12.082031 4.382813 C 11.074219 5.390625 10.042969 6.660156 9.046875 8.074219 C 8.535156 8.109375 8.039063 8.15625 7.558594 8.21875 C 7.226563 7.21875 7.011719 6.320313 7 5.679688 C 6.988281 5.117188 7.050781 4.65625 7.140625 4.382813 C 7.230469 4.105469 7.304688 4.058594 7.335938 4.042969 C 7.378906 4.019531 7.417969 4.007813 7.496094 4 C 7.945313 3.964844 8.542969 4.089844 9.359375 4.769531 L 10.640625 3.230469 C 9.519531 2.300781 8.359375 1.929688 7.347656 2.007813 L 7.34375 2.007813 C 7.035156 2.03125 6.714844 2.113281 6.425781 2.257813 C 5.804688 2.578125 5.429688 3.171875 5.234375 3.765625 C 5.042969 4.363281 4.988281 5.011719 5 5.71875 C 5.019531 6.601563 5.226563 7.582031 5.53125 8.585938 C 5.15625 8.675781 4.78125 8.765625 4.445313 8.875 C 3.550781 9.15625 2.78125 9.503906 2.164063 9.976563 C 1.550781 10.449219 1.046875 11.121094 1 11.949219 C 0.960938 12.699219 1.335938 13.398438 1.828125 13.871094 C 2.324219 14.339844 2.941406 14.660156 3.636719 14.933594 L 4.363281 13.066406 C 3.816406 12.855469 3.410156 12.609375 3.203125 12.417969 C 3 12.222656 2.992188 12.160156 3 12.050781 C 3.003906 11.972656 3.050781 11.820313 3.382813 11.5625 C 3.71875 11.304688 4.300781 11.015625 5.046875 10.78125 C 5.398438 10.667969 5.789063 10.570313 6.203125 10.480469 C 6.386719 10.929688 6.582031 11.371094 6.785156 11.8125 C 5.492188 14.480469 4.96875 16.976563 5 18.714844 C 5.019531 19.890625 5.457031 20.96875 6.355469 21.550781 C 6.941406 21.933594 7.710938 22.085938 8.4375 21.9375 C 9.160156 21.789063 9.851563 21.414063 10.628906 20.859375 L 9.46875 19.234375 C 8.8125 19.699219 8.328125 19.917969 8.039063 19.976563 C 7.746094 20.035156 7.65625 20.011719 7.445313 19.875 C 7.234375 19.738281 7.011719 19.414063 7 18.679688 C 6.984375 17.664063 7.261719 16.015625 7.960938 14.160156 C 8.011719 14.261719 8.066406 14.375 8.117188 14.472656 C 9.011719 16.132813 10.351563 18.113281 11.761719 19.632813 C 12.464844 20.390625 13.179688 21.039063 13.9375 21.472656 C 14.667969 21.894531 15.570313 22.132813 16.414063 21.75 C 17.148438 21.492188 17.609375 20.828125 17.804688 20.148438 C 18.007813 19.4375 18.03125 18.636719 17.9375 17.734375 C 17.75 15.933594 17.074219 13.734375 15.878906 11.527344 L 14.121094 12.472656 C 15.195313 14.472656 15.796875 16.476563 15.949219 17.9375 C 16.023438 18.671875 15.976563 19.265625 15.882813 19.597656 C 15.789063 19.929688 15.730469 19.898438 15.773438 19.886719 L 15.683594 19.914063 L 15.597656 19.957031 C 15.574219 19.96875 15.402344 20.007813 14.9375 19.738281 C 14.46875 19.472656 13.851563 18.941406 13.230469 18.269531 C 11.984375 16.929688 10.6875 15.03125 9.882813 13.527344 C 9.601563 13.007813 9.3125 12.417969 9.03125 11.816406 C 9.257813 11.402344 9.5 10.988281 9.765625 10.574219 C 9.890625 10.386719 10.015625 10.210938 10.136719 10.03125 C 10.425781 10.019531 10.707031 10 11.003906 10 C 11.476563 10 11.960938 10.011719 12.457031 10.035156 C 15.109375 10.175781 17.417969 10.660156 18.964844 11.300781 C 19.738281 11.621094 20.316406 11.984375 20.636719 12.296875 C 20.957031 12.609375 21.011719 12.796875 21 12.949219 C 21.003906 12.925781 20.949219 13.128906 20.578125 13.378906 C 20.203125 13.628906 19.582031 13.882813 18.828125 14.015625 L 19.171875 15.984375 C 20.152344 15.8125 21.011719 15.496094 21.691406 15.039063 C 22.371094 14.582031 22.953125 13.9375 23 13.050781 C 23.042969 12.203125 22.617188 11.433594 22.027344 10.859375 C 21.4375 10.285156 20.660156 9.835938 19.730469 9.453125 C 17.875 8.683594 15.390625 8.1875 12.5625 8.039063 C 12.230469 8.023438 11.90625 8.023438 11.578125 8.015625 C 12.230469 7.167969 12.882813 6.410156 13.5 5.796875 C 14.6875 4.605469 15.796875 4.019531 16.234375 4 C 16.425781 3.996094 16.515625 4.027344 16.582031 4.070313 C 16.753906 4.183594 17.390625 5.132813 16.453125 6.640625 L 18.15625 7.695313 C 19.503906 5.515625 19.074219 3.304688 17.671875 2.394531 C 17.214844 2.097656 16.675781 1.980469 16.15625 2 Z M 12 11 C 11.449219 11 11 11.449219 11 12 C 11 12.550781 11.449219 13 12 13 C 12.550781 13 13 12.550781 13 12 C 13 11.449219 12.550781 11 12 11 Z"/>
</svg>
